[22-Apr-2018 12:01:33 Europe/Berlin] Uncaught exception: "Exception" with Message: "No router method."
Stack trace: #0 F:\www\mediapp\public\index.php(57): Core\Router->dispatch('favicon.ico')
#1 {main}
Thrown in: 'F:\www\mediapp\Core\Router.php' on line 114
[22-Apr-2018 12:01:45 Europe/Berlin] Uncaught exception: "Exception" with Message: "methodnewAction not found in controllerApp\Controllers\Posts"
Stack trace: #0 F:\www\mediapp\Core\Router.php(98): Core\Controller->__call('new', Array)
#1 F:\www\mediapp\public\index.php(57): Core\Router->dispatch('posts/new')
#2 {main}
Thrown in: 'F:\www\mediapp\Core\Controller.php' on line 33
